-qwC2%Ps2u1%s%uN0%I0p3DaK0H0%kf2A25000%f#f -F "Mozilla/4.5 (compatible; HTTrack 3.0x; Windows 98)" -%F "<!-- Mirrored from %s%s by HTTrack Website Copier/3.x [XR&CO'2014], %s -->" -%l "en, *" http://www.motherbird.com.au/ -O1 "C:\My Web Sites\mother bird" +*.png +*.gif +*.jpg +*.jpeg +*.css +*.js -ad.doubleclick.net/* -mime:application/foobar
File generated automatically on Fri, 11 Jan 2019 12:29:26, do NOT edit

To update a mirror, just launch httrack without any parameters
The existing cache will be used (and modified)
To have other options, retype all parameters and launch HTTrack
To continue an interrupted mirror, just launch httrack without any parameters

